proximo;lunes;salon;plenos;reunion;estudiantes;para;buscar;zona;estudio;verano
unidad;movil;centro;regional;transfusion;sanguinea;estara;miercoles;centro;salud;horario;cinco;media;tarde;nueve;media;noche;para;atender;ciudadanos;deseen;donar;sangre;unicos;requisitos;para;donante;consisten;tener;mayoria;edad;menos;kilos;peso;buena;salud;donar;primera;sentiran;apoyo;posibilitan;enfermo;necesite;falte;transfusion;entre;donaciones;sangre;deben;transcurrir;menos;dias;deben;acumular;cuatro;donaciones;periodo;caso;hombres;tres;mujeres
proximo;martes;junio;alumnos;ludoteca;municipal;todos;niños;deseen;disfrutar;fiesta;animacion;plaza;ayuntamiento;trata;fiesta;organizada;delegacion;asuntos;sociales;ayuntamiento;para;poner;actividad;ludoteca;llevado;cabo;durante;todo;invierno;primavera;manera;amena;atractiva;para;niños;niñas;comenzaran;mañana;durante;horas;mantendran;ocupados;pequeños;juegos;pintacaras;globoflexia;presentador;animador;personajes;infantiles;muchas;otras;actividades;divertidas;delegacion;asuntos;sociales;invita;todos;niños;bornos;coto;bornos;participar;anima;igualmente;inscribirse;juegos;verano;comenzaran;julio;haran;pasen;verano;divertido;refrescante;plazo;inscripcion;para;talleres;verano;comienza;proximo;miercoles;junio;casa;ordoñez;horario;plazas;limitadas;fiesta;ludoteca;plaza;ayuntamiento;martes;junio;horario;horas;lugar;plaza;ayuntmiento;para;todos;niños;niñas;pueblo
nuevo;equipo;gobierno;ayuntamiento;bornos;quiere;fomentar;participacion;ciudadana;entre;vecinos;deseo;todos;todas;seamos;participes;construccion;nuevo;bornos;para;ello;desde;ayuntamiento;realizar;diferentes;acciones;para;fomentar;participacion;recabar;ideas;aunar;proyectos;consensuar;acciones;primer;paso;creado;plataforma;facebook;llamada;bornos;coto;entre;todos;como;instrumento;participacion;ciudadania;ademas;pretende;sirva;herramienta;comunicacion;directa;diferentes;asuntos;sean;relevantes;para;municipio;esta;linea;colaboracion;ciudadano;ayuntamiento;queremos;solicitar;todos;vecinos;posean;fotografias;etapa;construccion;presa;pantano;bornos;faciliten;motivo;contribuir;empresa;puesto;contacto;ayuntamiento;para;llevar;cabo;proyecto;construccion;centro;interpretacion;pantanos;presas;para;cual;desde;bornos;queremos;aportar;nuestro;granito;arena;fotografias;antiguas;nuestro;serian;visualizadas;todo;visitantes;personas;quieran;colaborar;pueden;llevar;fotografia;casa;cultura;casa;ordoñez;donde;escaneara;devolvera;momento
presentado;cartel;prueba;automovilistica;slalom;ciudad;conil;correspondiente;prueba;puntuable;campeonato;andaluz;celebrara;proximo;domingo;mayo;recinto;bateles;junto;paseo;maritimo;partir;diez;mañana;presentacion;evento;deportivo;presidida;alcalde;conil;juan;bermudez;acompañado;concejal;deportes;antonio;moreno;presidente;escuderia;francisco;garcia;galera;evento;sera;organizado;escuderia;federacion;andaluza;automovilismo;delegacion;deportes;excmo;ayuntamiento;conil;presidente;escuderia;explico;asistentes;medios;comunicacion;alli;presentes;caracteristicas;tecnicas;prueba;consistente;circuito;algo;menos;metros;donde;pilotos;podran;demostrar;habilidades;conduccion;sorteando;diseño;recorrido;elementos;señalizacion;slalom;agradecio;ayuntamiento;disponibilidad;colaboracion;para;organizacion;prueba;parte;alcalde;localidad;juan;bermudez;destacaba;importancia;este;tipo;eventos;tiene;para;localidad;ademas;aportar;valores;deportivos;hacen;ciudad;lugar;agradable;para;vecinos;para;aquellos;visitantes;esperan;sean;muchos;provenientes;toda;geografia;andaluza;asimismo;valoraba;alcalde;participacion;tres;conileños;evento;siendo;ello;campeon;pasado;modalidad;deseandole;mejor;marcas;este;campeonato;andalucia
delegacion;fiestas;ayuntamiento;organizado;amplio;programa;actuaciones;para;todas;edades;feria;santiago;santa;benalup;casas;viejas;arranca;este;miercoles;julio;encendido;alumbrado;extraordinario;ceremonia;coronacion;figura;mayor;figura;infantil;acto;estara;presidido;alcaldesa;amalia;romero;caseta;municipal;acoge;partir;horas;actuaciones;grupos;baile;maria;cozar;calor;tablas;banda;municipal;musica;horas;esta;prevista;entrada;recinto;ferial;figuras;mayor;infantil;damas;honor;junto;alcaldesa;procederan;inauguracion;alumbrado;extraordinario;parque;atracciones;presentado;jose;manuel;cabrales;acto;coronacion;tendra;como;protagonistas;marta;rojas;moreno;figura;mayor;naiara;maria;sanchez;gonzalez;figura;infantil;subiran;escenario;caseta;municipal;acompañadas;primer;caso;damas;honor;alba;casas;macias;olga;ramirez;montes;pilar;mateos;cervan;nuria;aguilera;candon;cuanto;figura;infantil;damas;honor;claudia;caballero;rojas;quiñones;castellet;calle;perez;paula;velazquez;garcia;finalizado;este;acto;recinto;ferial;ubicado;zona;paternilla;acogera;hasta;noche;domingo;amplio;programa;actividades;este;entre;novedades;feria;destaca;nueva;ordenacion;zona;dedicada;casetas;estaran;agrupadas;objetivo;mayor;animacion;realce;recinto;ferial;tambien;organizado;mediante;delegacion;juventud;concurso;partir;horas;zona;ocio;juvenil;este;certamen;pretende;premiar;calidad;musical;ejecucion;artistica;participantes;ganador;recibira;euros;diploma;segundo;euros;diploma;mientras;tercer;clasificado;obtendra;euros;diploma;este;igual;pasada;edicion;niños;podran;disfrutar;fiesta;espuma;domingo;mediodia;inmediaciones;caseta;municipal;actividad;gratuita;organizada;delegacion;fiestas;jornada;jueves;celebra;niño;gracias;acuerdo;suscrito;entre;ayuntamiento;asociacion;provincial;feriantes;permitira;todas;atracciones;instaladas;recinto;ferial;cuesten;euros;jueves;tambien;celebrara;tradicional;dedicado;tercera;edad;almuerzo;caseta;municipal;colaboran;asociaciones;mujeres;amubein;adelfa;programado;actuaciones;taller;baile;tercera;edad;coraje;charanga;negra;puntillo;programa;actos;contempla;este;actividades;relacionadas;caballos;organizadas;peña;arreos;montura;colaboracion;ayuntamiento;inmediaciones;caseta;esta;entidad;junto;antigua;escombrera;celebraran;noche;jueves;carreras;cintas;garrocha;viernes;premiara;mejores;caballos;jinetes;amazonas;sabado;organizara;gymkana;caballo;tambien;viernes;partir;horas;tendra;lugar;espectaculo;ecuestre;sentimiento;andaluz;contara;baile;nadia;arias;ejecucion;monta;bailaor;jinete;david;prieto;mujer;sera;gran;protagonista;jornada;viernes;presencia;habitual;mujeres;ataviadas;flamenca;mientras;sabado;destaca;conejada;caseta;municipal;organizada;peña;cazadores;malvis;ayuntamiento;durante;todos;dias;feria;caseta;municipal;sera;escenario;actuaciones;musicales;grupos;baile;tanto;horario;mañana;como;noche;grupo;sinfonias;encargara;amenizar;actuaciones;caseta;municipal;durante;todas;jornadas;feria;junto;este;grupo;tambien;habra;actuaciones;trio;magia;grupo;flamenco;entre;amigos;compas;tradicional;castillo;fuegos;artificiales;clausurara;feria;noche;domingo;programa;feria;descargar
descargar;guia;aqui
para;detalles;pinchar;aqui
proximamente;programacion
autobus;sale;estacion;autobuses;vale;quieran;venir;pasen;cuanto;antes;parroquia;para;apuntarse;domingo;repartiremos;belen;misa;deseen;llevarse;casa;podran;adquirir;vela;parroquia;para;ello
